# Blender v2.91.2 OBJ File: ''
# www.blender.org
mtllib duck3.mtl
o 12248_Bird_v1_L2
v 1.473952 -0.148983 0.478562
v 1.503402 -0.247233 -0.083752
v 2.221157 -0.117388 0.054460
v -1.878884 1.330075 0.184816
v -1.271172 1.330631 0.776253
v -1.522020 1.828579 0.213918
v -1.830661 1.570189 0.069981
v -1.891877 1.333412 -0.274290
v -0.206495 -0.257854 0.523913
v -0.824954 0.320182 0.924887
v -1.222180 0.302024 0.528551
v -1.022901 1.901086 0.301773
v -1.196848 2.111724 0.191037
v 1.504879 0.422053 0.636560
v 0.910908 0.136018 0.958822
v 2.217265 0.038800 0.299170
v 0.529611 -0.088434 0.909945
v -0.850765 3.799816 -0.022026
v -1.247156 3.727110 0.003716
v -1.040470 3.526118 0.202981
v -0.168079 1.802319 0.251658
v -0.548757 1.599423 0.760012
v 0.208462 1.411162 0.796200
v -1.539949 3.388721 -0.074523
v -2.110662 3.029991 0.086707
v -1.613699 3.258183 0.048883
v -0.212975 -0.722128 0.415885
v -0.194914 -0.918637 0.506627
v -0.136074 1.183075 1.104810
v 1.020488 0.600711 0.807841
v -1.221700 0.980591 0.908369
v -1.477837 0.863990 0.661759
v 0.493325 1.494991 0.218075
v 1.132822 1.010709 0.349613
v -1.074996 3.782793 -0.205822
v 0.209331 -0.331064 -0.045552
v -0.067298 -0.266978 0.427297
v -0.330351 -0.226547 0.272341
v 0.022297 0.217897 1.129567
v -0.192006 -0.132351 0.714567
v -0.929073 0.057375 -0.036447
v -1.324775 3.135869 0.146293
v -1.383325 3.075902 -0.062588
v -1.100061 2.962477 -0.004065
v -0.090600 -0.306807 0.493652
v -0.684036 3.221843 0.312078
v -0.470176 3.166622 0.014813
v -0.720333 3.667241 0.111289
v -1.177722 3.217007 0.281680
v -1.259816 2.450892 0.020512
v -0.876077 2.908279 0.240956
v -1.040774 2.787855 0.100072
v 0.340592 -0.235560 0.548521
v -0.328197 -0.226585 -0.439831
v -2.117178 2.952208 0.048103
v -2.122624 3.029993 -0.238870
v -2.120460 2.955593 -0.217154
v -0.860294 2.338525 0.127053
v -1.413040 3.449436 0.056263
v -1.452146 3.311194 0.116982
v -1.186776 3.447691 0.134814
v -1.560677 3.128378 0.068967
v -1.747148 0.883337 0.172918
v -1.318371 0.272012 -0.297396
v -1.759114 0.864679 -0.293898
v -0.064593 -0.852138 0.416748
v -0.078794 -0.922815 0.484186
v -0.078640 -0.916818 0.368644
v -0.197640 -0.915090 0.339015
v -0.254754 -0.914278 0.424418
v -0.837661 -1.047807 0.703209
v -0.752896 -1.038867 0.952605
v -0.307750 -0.977085 0.519016
v -1.068306 -1.067726 0.456762
v -1.011292 -1.012081 0.449480
v -0.302454 -0.979879 0.354407
v -0.757838 -1.045154 0.005295
v -0.080654 -1.052313 0.349657
v -0.305152 -1.056111 0.438372
v -0.776684 -1.030925 -0.054742
v -0.719546 -1.041438 -0.055247
v 0.036300 -1.005260 0.432366
v -0.241314 -0.322363 0.424738
v 2.381590 0.455143 0.157603
v 1.229932 1.013055 0.068268
v 2.205254 0.519948 -0.044373
v 2.548843 0.455495 -0.011413
v 2.522866 0.397222 0.065176
v 1.567716 0.734296 0.279081
v 2.143134 0.359029 0.425528
v 2.086350 0.308899 0.128865
v 1.488397 0.838813 -0.083237
v -0.707871 2.287774 -0.088899
v -0.649963 1.955331 0.040885
v -0.825468 1.934855 0.235525
v -1.416163 3.203603 0.156391
v 1.384945 -0.157855 -0.689521
v 2.202263 -0.091653 -0.335568
v -1.013122 1.326489 -1.054304
v -1.521390 1.257956 -0.802161
v -1.417594 1.873008 -0.411589
v -0.852977 3.687920 -0.333092
v -1.562746 3.130848 -0.240991
v -0.921081 1.842672 -0.544906
v -0.927427 2.197582 -0.323701
v -1.126869 0.303461 -0.818693
v -0.217340 0.006282 -1.086215
v -0.213521 -0.260105 -0.687357
v 0.281109 -0.185619 -0.885506
v 0.550633 -0.023211 -1.140893
v -1.739689 1.753920 -0.226852
v -1.119170 3.557570 -0.315842
v -1.114079 3.424962 -0.334857
v -0.561428 3.572008 -0.095515
v -0.263080 1.512614 -1.031352
v -0.114432 1.714754 -0.621001
v 0.207310 1.358013 -1.009366
v 2.018747 0.067418 -0.576695
v 2.771441 0.151210 -0.081476
v 2.072720 0.350131 -0.240596
v 0.979557 0.825764 -0.889559
v 0.036572 1.052724 -1.269579
v 0.386649 1.532162 -0.516948
v 1.253904 1.009319 -0.178830
v -1.326379 3.107773 -0.274026
v -1.039279 3.006248 -0.402011
v -0.233739 -0.323265 -0.582885
v -0.727056 3.311823 -0.461042
v -0.584302 3.233372 -0.414615
v -0.852404 2.908523 -0.420303
v -0.962807 2.733257 -0.348887
v -1.084349 2.802153 -0.151028
v -1.071979 3.190200 -0.471046
v -1.196429 2.451972 -0.267885
v -1.660485 3.268869 -0.181400
v -1.415286 3.452561 -0.218226
v -1.379778 3.196312 -0.328188
v -1.445530 3.304794 -0.291225
v 1.514778 0.426628 -0.809215
v 0.960456 0.170413 -1.104070
v 0.139748 0.254547 -1.314373
v -0.787417 0.502068 -1.197426
v -0.416238 1.099696 -1.271697
v -0.645386 1.954377 -0.213346
v -1.409393 0.895982 -0.935518
v -0.069563 -0.262651 -0.592883
v -0.196291 -0.733213 -0.570717
v -0.073411 -0.735128 -0.593188
v -0.198477 -0.917745 -0.672400
v -0.196086 -0.906368 -0.506538
v -0.072666 -0.854042 -0.636069
v -0.069767 -0.921569 -0.539914
v -0.253936 -0.917192 -0.597237
v -0.312193 -0.980453 -0.689488
v -0.704003 -1.056845 -1.138948
v -0.830004 -1.044756 -0.885927
v -0.753782 -1.039074 -1.120131
v -0.709946 -0.991022 -1.113145
v -1.037971 -1.022946 -0.621772
v -0.058050 -0.942469 -0.638924
v -1.069062 -1.067738 -0.613895
v -0.236327 -1.055330 -0.599563
v -0.090503 -1.054317 -0.692709
v -0.071799 -1.050558 -0.523709
v -0.730912 -0.994420 -0.134231
v -0.309051 -0.978732 -0.525883
v -0.755833 -1.052739 -0.109820
v -0.756047 -1.039413 -0.173832
v 0.042637 -0.999401 -0.601428
v 2.215768 0.519213 -0.124799
v 2.143987 0.562542 -0.334892
v 2.124104 0.346927 -0.598596
v 2.557115 0.443082 -0.171951
v 1.574819 0.729049 -0.449160
v 2.500102 0.370697 -0.273713
v -1.163787 3.514010 0.141030
v -1.128877 3.460015 0.189657
v -1.049280 3.463958 0.170087
v -1.125645 3.413104 0.137930
v -1.092496 3.500451 0.117129
v -1.100106 3.438029 -0.350025
v -1.163049 3.509460 -0.310840
v -1.057615 3.495941 -0.294048
v -1.159026 3.478211 -0.253367
v -0.619931 0.744627 1.107025
v -0.708580 -0.990303 0.945305
v -0.702865 -1.056860 0.971201
v -0.068392 -1.053186 0.510206
v -0.082634 -0.302978 -0.660326
vt 0.089723 0.512707
vt 0.019283 0.500024
vt 0.037816 0.409892
vt 0.389444 0.938540
vt 0.382089 0.826630
vt 0.465444 0.866395
vt 0.439726 0.935973
vt 0.432713 0.962335
vt 0.125285 0.785643
vt 0.237556 0.803445
vt 0.239284 0.877969
vt 0.478234 0.794795
vt 0.512825 0.830280
vt 0.174599 0.480057
vt 0.171824 0.577795
vt 0.077314 0.409593
vt 0.145432 0.636498
vt 0.759939 0.775440
vt 0.759710 0.833447
vt 0.722161 0.816810
vt 0.455012 0.651415
vt 0.401973 0.730013
vt 0.359186 0.640085
vt 0.734623 0.888122
vt 0.688850 0.971600
vt 0.707760 0.900317
vt 0.142096 0.029384
vt 0.203370 0.020450
vt 0.230114 0.023004
vt 0.320387 0.694819
vt 0.236979 0.551210
vt 0.326045 0.827440
vt 0.322516 0.878859
vt 0.417502 0.571882
vt 0.296752 0.504708
vt 0.775693 0.806205
vt 0.018426 0.665923
vt 0.077076 0.717320
vt 0.052689 0.741175
vt 0.197435 0.697155
vt 0.134595 0.737030
vt 0.156759 0.896558
vt 0.673535 0.866827
vt 0.656720 0.887069
vt 0.629059 0.854891
vt 0.145548 0.046454
vt 0.142299 0.055743
vt 0.126432 0.037239
vt 0.673451 0.777505
vt 0.661054 0.733489
vt 0.732706 0.761988
vt 0.678116 0.830483
vt 0.546024 0.858939
vt 0.629169 0.814483
vt 0.607532 0.832432
vt 0.103760 0.663456
vt 0.007900 0.734900
vt 0.679369 0.977342
vt 0.696365 0.992467
vt 0.688292 0.995772
vt 0.546385 0.784023
vt 0.726048 0.867172
vt 0.703817 0.871390
vt 0.720660 0.833278
vt 0.687013 0.900321
vt 0.202226 0.491339
vt 0.336288 0.948270
vt 0.231452 0.950013
vt 0.336478 0.984010
vt 0.222796 0.050495
vt 0.233122 0.044710
vt 0.161777 0.174725
vt 0.153783 0.182331
vt 0.136975 0.174703
vt 0.127988 0.170752
vt 0.146028 0.151713
vt 0.119561 0.197756
vt 0.146042 0.230462
vt 0.066824 0.249765
vt 0.104489 0.156431
vt 0.098517 0.164815
vt 0.042428 0.237161
vt 0.048352 0.255935
vt 0.037038 0.252369
vt 0.085275 0.018910
vt 0.135744 0.108437
vt 0.099873 0.105485
vt 0.086576 0.010121
vt 0.093071 0.015671
vt 0.027861 0.162277
vt 0.019608 0.158543
vt 0.015423 0.047498
vt 0.157889 0.193216
vt 0.143066 0.190002
vt 0.172153 0.195044
vt 0.161435 0.193393
vt 0.188347 0.098951
vt 0.160299 0.098713
vt 0.156336 0.079110
vt 0.213473 0.340431
vt 0.328391 0.466208
vt 0.244834 0.332668
vt 0.219013 0.306436
vt 0.201522 0.326393
vt 0.180438 0.228281
vt 0.199804 0.169760
vt 0.319996 0.232921
vt 0.194669 0.388895
vt 0.254360 0.242506
vt 0.407038 0.466436
vt 0.500539 0.480898
vt 0.483409 0.521982
vt 0.327148 0.428008
vt 0.549351 0.750739
vt 0.508906 0.736739
vt 0.490364 0.770769
vt 0.691683 0.878042
vt 0.395887 0.060980
vt 0.430561 0.129738
vt 0.306095 0.110802
vt 0.748256 0.350288
vt 0.820613 0.349637
vt 0.816369 0.448255
vt 0.792960 0.715980
vt 0.821461 0.735168
vt 0.779147 0.744333
vt 0.885668 0.616806
vt 0.975036 0.630877
vt 0.899982 0.649030
vt 0.748101 0.449581
vt 0.762187 0.507680
vt 0.785366 0.216847
vt 0.651689 0.170255
vt 0.692914 0.110523
vt 0.578689 0.125909
vt 0.544934 0.171931
vt 0.897902 0.361558
vt 0.879785 0.427505
vt 0.830368 0.702488
vt 0.833081 0.687586
vt 0.742005 0.713299
vt 0.651781 0.377539
vt 0.622928 0.436058
vt 0.584849 0.363129
vt 0.329329 0.153210
vt 0.227296 0.110827
vt 0.817892 0.115820
vt 0.850323 0.195783
vt 0.936554 0.437076
vt 0.961985 0.401323
vt 0.932175 0.490718
vt 0.471244 0.299284
vt 0.612858 0.304835
vt 0.544165 0.423395
vt 0.400742 0.371529
vt 0.867629 0.638708
vt 0.832161 0.619755
vt 0.851686 0.595445
vt 0.921689 0.081575
vt 0.919724 0.065326
vt 0.936699 0.075269
vt 0.780114 0.670684
vt 0.760357 0.657199
vt 0.796668 0.609058
vt 0.806869 0.579983
vt 0.721343 0.649060
vt 0.835157 0.579896
vt 0.822344 0.649795
vt 0.568369 0.030077
vt 0.897286 0.286608
vt 0.822969 0.532098
vt 0.852403 0.515141
vt 0.964974 0.667511
vt 0.910689 0.675237
vt 0.972090 0.641907
vt 0.863122 0.730852
vt 0.874453 0.692956
vt 0.894324 0.697943
vt 0.870306 0.655680
vt 0.877355 0.671235
vt 0.405164 0.240256
vt 0.481048 0.206873
vt 0.602755 0.214952
vt 0.720724 0.244111
vt 0.671531 0.313463
vt 0.705615 0.500640
vt 0.800964 0.292733
vt 0.925744 0.039910
vt 0.864471 0.065272
vt 0.863155 0.048006
vt 0.971826 0.204917
vt 0.962554 0.121836
vt 0.970026 0.147956
vt 0.840963 0.069489
vt 0.847655 0.042808
vt 0.836599 0.050692
vt 0.840688 0.081908
vt 0.950137 0.816593
vt 0.950791 0.827296
vt 0.932032 0.822240
vt 0.744211 0.933641
vt 0.775977 0.949670
vt 0.745219 0.941637
vt 0.865267 0.864121
vt 0.857293 0.854326
vt 0.865307 0.856427
vt 0.860994 0.817927
vt 0.850858 0.776265
vt 0.961871 0.835518
vt 0.815491 0.980054
vt 0.815122 0.875495
vt 0.941344 0.129585
vt 0.938483 0.117359
vt 0.935332 0.114659
vt 0.951262 0.111684
vt 0.823578 0.846078
vt 0.796292 0.847513
vt 0.809800 0.837400
vt 0.920216 0.727755
vt 0.974079 0.813064
vt 0.957975 0.806826
vt 0.946451 0.797085
vt 0.875065 0.922398
vt 0.874739 0.938235
vt 0.910957 0.729802
vt 0.914315 0.717939
vt 0.846693 0.773318
vt 0.830570 0.031066
vt 0.828137 0.038674
vt 0.923472 0.114614
vt 0.732542 0.088366
vt 0.617419 0.080940
vt 0.270283 0.306635
vt 0.303071 0.292915
vt 0.309144 0.248784
vt 0.238777 0.284746
vt 0.108594 0.286715
vt 0.154861 0.259678
vt 0.176720 0.393301
vt 0.132859 0.384067
vt 0.055709 0.305374
vt 0.181593 0.344950
vt 0.866373 0.562358
vt 0.918413 0.576908
vt 0.389139 0.384860
vt 0.585590 0.494821
vt 0.688111 0.516384
vt 0.728477 0.539781
vt 0.653341 0.595724
vt 0.666557 0.571490
vt 0.689269 0.573619
vt 0.652750 0.554153
vt 0.546524 0.577115
vt 0.563253 0.556102
vt 0.566854 0.541928
vt 0.527919 0.548013
vt 0.646219 0.680231
vt 0.652706 0.648567
vt 0.679361 0.661129
vt 0.626644 0.650311
vt 0.541812 0.615825
vt 0.575714 0.639355
vt 0.545397 0.647706
vt 0.725625 0.730523
vt 0.118929 0.390127
vt 0.041069 0.325517
vt 0.097617 0.821844
vt 0.144000 0.090400
vt 0.603665 0.855787
vt 0.473747 0.935403
vt 0.727582 0.910874
vt 0.278840 0.760658
vt 0.071303 0.859644
vt 0.425838 0.448111
vt 0.140397 0.237556
vt 0.226980 0.012249
vt 0.054793 0.263934
vt 0.017650 0.130814
vt 0.011489 0.126463
vt 0.021020 0.092859
vt 0.145454 0.243319
vt 0.052201 0.285695
vt 0.012785 0.165104
vt 0.048164 0.277804
vt 0.121284 0.130624
vt 0.015827 0.264535
vt 0.027668 0.267214
vt 0.151100 0.201400
vt 0.240098 0.061694
vt 0.298025 0.190398
vt 0.335449 0.217597
vt 0.216216 0.124084
vt 0.527779 0.731850
vt 0.949539 0.535876
vt 0.402538 0.212741
vt 0.294662 0.082622
vt 0.984773 0.620895
vt 0.293020 0.169676
vt 0.945363 0.208293
vt 0.964802 0.211179
vt 0.933286 0.219821
vt 0.928914 0.344270
vt 0.940961 0.150649
vt 0.921227 0.034796
vt 0.973692 0.123270
vt 0.808277 0.977651
vt 0.964337 0.843044
vt 0.924321 0.722686
vt 0.982354 0.804905
vt 0.633937 0.036284
vt 0.262991 0.257631
vt 0.160348 0.414660
vt 0.046046 0.299858
vt 0.374337 0.234892
vt 0.519436 0.472783
vt 0.557952 0.670511
vt 0.146261 0.021336
vt 0.188561 0.448853
vn 0.2287 -0.8448 0.4838
vn 0.1152 -0.9933 -0.0009
vn 0.3539 -0.9111 0.2112
vn -0.9210 0.0801 0.3811
vn -0.4366 0.4192 0.7960
vn -0.5165 0.4918 0.7010
vn -0.8661 0.4117 0.2836
vn -0.9554 0.0525 -0.2907
vn -0.4557 -0.6470 0.6113
vn -0.4195 -0.5180 0.7454
vn -0.6408 -0.6749 0.3660
vn -0.0389 0.5881 0.8078
vn -0.2222 0.3179 0.9217
vn 0.4389 -0.0141 0.8984
vn 0.3233 -0.2284 0.9183
vn 0.5649 -0.1823 0.8048
vn 0.0782 -0.7401 0.6680
vn 0.2289 0.9467 0.2265
vn -0.5200 0.7837 0.3398
vn -0.2012 0.4462 0.8720
vn 0.2892 0.9307 0.2241
vn -0.0207 0.7429 0.6691
vn 0.3803 0.7016 0.6026
vn -0.6443 0.7561 0.1146
vn -0.6181 0.2452 0.7469
vn -0.3196 0.4851 0.8139
vn -0.7614 0.1160 -0.6379
vn -0.2968 0.7681 0.5674
vn 0.0964 0.3864 0.9173
vn 0.4176 0.3815 0.8247
vn -0.4865 0.0237 0.8733
vn -0.7480 -0.2205 0.6260
vn 0.4933 0.8545 0.1625
vn 0.5016 0.7526 0.4265
vn -0.2542 0.8637 -0.4352
vn -0.0223 -0.9997 -0.0066
vn 0.3435 -0.9391 -0.0048
vn -0.3749 -0.9269 0.0202
vn -0.0339 -0.3524 0.9352
vn -0.1963 -0.7904 0.5802
vn -0.4810 -0.8767 0.0003
vn -0.3806 -0.6258 0.6809
vn -0.1486 -0.9876 0.0502
vn -0.7594 -0.6247 0.1817
vn 0.7312 -0.1031 0.6744
vn 0.4384 0.0633 0.8965
vn 0.9774 -0.0363 0.2084
vn 0.4531 0.6404 0.6201
vn -0.3589 -0.0209 0.9332
vn -0.8183 0.4646 0.3385
vn -0.2573 -0.2208 0.9408
vn -0.8279 0.2212 0.5155
vn 0.0161 -0.9589 0.2834
vn -0.3839 -0.9230 -0.0258
vn -0.5526 -0.7090 0.4382
vn -0.6699 0.3224 -0.6689
vn -0.5351 -0.6891 -0.4887
vn 0.5375 -0.0157 0.8431
vn -0.5574 0.4749 0.6810
vn -0.4579 0.3800 0.8037
vn -0.4279 0.3936 0.8136
vn -0.0692 -0.5094 0.8577
vn -0.8787 -0.4217 0.2239
vn -0.6420 -0.7580 -0.1148
vn -0.8892 -0.4109 -0.2013
vn 0.8380 0.3517 -0.4172
vn 0.7167 0.0934 0.6911
vn 0.6148 0.2127 -0.7594
vn -0.1810 0.8044 -0.5659
vn -0.6675 0.7446 -0.0044
vn -0.9372 -0.0416 0.3463
vn -0.8807 -0.0059 0.4736
vn -0.3146 0.9468 0.0675
vn -0.9185 -0.2750 0.2840
vn -0.4445 0.8126 0.3770
vn -0.3495 0.9256 -0.1454
vn -0.9269 -0.3031 0.2214
vn 0.6880 -0.5807 -0.4352
vn 0.0083 -0.9999 -0.0096
vn -0.8168 0.1185 -0.5646
vn 0.1960 -0.2451 -0.9495
vn 0.7207 -0.6932 -0.0108
vn -0.8395 -0.4489 -0.3062
vn 0.4964 0.7230 0.4804
vn 0.5133 0.8578 0.0259
vn 0.2243 -0.1429 -0.9640
vn 0.8166 0.1653 -0.5531
vn 0.7244 -0.6580 0.2055
vn 0.7383 -0.5595 -0.3767
vn 0.4347 -0.5577 0.7071
vn 0.5280 0.7600 0.3790
vn 0.5404 0.8356 0.0992
vn 0.9980 0.0113 -0.0628
vn 0.6001 0.7207 0.3471
vn 0.5100 -0.4773 0.7156
vn -0.0358 0.0509 0.9981
vn 0.2201 -0.8363 -0.5021
vn 0.4050 -0.8093 -0.4255
vn -0.2967 0.4128 -0.8612
vn -0.6494 0.2413 -0.7212
vn -0.4175 0.4863 -0.7676
vn 0.2171 0.6535 -0.7251
vn -0.1168 -0.4734 -0.8731
vn 0.0273 0.7172 -0.6964
vn 0.3958 0.1595 -0.9044
vn -0.5867 -0.6565 -0.4742
vn -0.2303 -0.6841 -0.6920
vn -0.4082 -0.6785 -0.6107
vn 0.0028 -0.9175 -0.3977
vn 0.1252 -0.6326 -0.7643
vn -0.8116 0.4928 -0.3138
vn -0.3043 0.2935 -0.9063
vn -0.3143 0.3174 -0.8947
vn 0.8549 0.5159 -0.0549
vn 0.0797 0.7137 -0.6959
vn 0.2641 0.9100 -0.3196
vn 0.3968 0.6568 -0.6412
vn 0.5467 -0.0691 -0.8345
vn 0.9948 0.1006 0.0161
vn 0.5292 0.7943 -0.2983
vn 0.4751 0.5350 -0.6986
vn 0.1985 0.3086 -0.9303
vn 0.4823 0.8408 -0.2458
vn 0.1545 0.8141 0.5598
vn -0.3481 -0.8299 -0.4359
vn -0.4918 -0.4771 -0.7284
vn -0.7616 -0.4639 0.4524
vn 0.2295 0.1902 -0.9546
vn 0.7156 0.0433 -0.6972
vn 0.0060 -0.1900 -0.9818
vn -0.5698 -0.0168 -0.8216
vn -0.9706 0.1449 -0.1922
vn -0.2506 -0.0150 -0.9680
vn -0.7747 0.4569 -0.4372
vn -0.4698 0.6347 -0.6136
vn -0.5398 0.5869 -0.6035
vn -0.3910 -0.2329 -0.8904
vn -0.4115 0.2962 -0.8619
vn 0.4649 0.1789 -0.8671
vn 0.3594 -0.1623 -0.9190
vn 0.0230 -0.2572 -0.9661
vn -0.3589 -0.2877 -0.8879
vn -0.1067 0.2567 -0.9606
vn 0.5558 0.7532 -0.3518
vn -0.6501 -0.1593 -0.7429
vn 0.3393 -0.9387 0.0617
vn -0.6132 0.1273 0.7796
vn 0.8120 0.1065 0.5739
vn -0.1991 0.7324 -0.6511
vn -0.1804 0.7540 0.6316
vn 0.7646 0.1267 -0.6319
vn 0.7337 0.1403 0.6648
vn -0.6341 0.7712 -0.0561
vn -0.3278 0.9432 -0.0544
vn 0.0812 -0.5137 -0.8541
vn -0.7190 -0.0593 -0.6925
vn -0.8900 -0.0178 -0.4557
vn -0.2713 0.8951 -0.3539
vn -0.5869 0.7688 0.2541
vn 0.6382 -0.2217 -0.7372
vn -0.9054 -0.3408 0.2533
vn 0.0077 -1.0000 0.0029
vn 0.6550 -0.5986 -0.4611
vn 0.7072 -0.5823 0.4010
vn -0.2531 0.8288 0.4990
vn -0.3508 0.9309 0.1020
vn -0.4996 -0.4133 0.7613
vn -0.8972 -0.2116 -0.3876
vn 0.7712 -0.6363 0.0200
vn -0.1099 0.0351 0.9933
vn 0.4358 0.8415 -0.3193
vn 0.4495 -0.5836 -0.6763
vn 0.8935 0.0525 0.4460
vn 0.7423 -0.5797 0.3360
vn 0.6562 -0.6865 -0.3133
vn -0.7375 0.6652 -0.1165
vn -0.3325 -0.0935 0.9385
vn 0.9464 -0.0271 0.3218
vn -0.2339 -0.9261 -0.2960
vn 0.4036 0.5856 -0.7030
vn 0.2268 -0.6645 -0.7120
vn -0.7218 0.6078 -0.3311
vn 0.9401 0.2909 0.1780
vn -0.5366 -0.1374 0.8326
vn -0.2247 -0.0234 0.9741
vn -0.2648 0.8965 0.3552
vn 0.0859 -0.5062 0.8581
vn 0.7448 -0.5454 0.3845
vn 0.6728 0.2824 -0.6838
usemtl Default_OBJ
s 1
f 1/1/1 2/2/2 3/3/3
f 4/4/4 5/5/5 6/6/6
f 4/4/4 7/7/7 8/8/8
f 9/9/9 10/10/10 11/11/11
f 12/12/12 13/13/13 6/6/6
f 14/14/14 15/15/15 16/16/16
f 15/15/15 17/17/17 1/1/1
f 18/18/18 19/19/19 20/20/20
f 21/21/21 22/22/22 23/23/23
f 24/24/24 25/25/25 26/26/26
f 9/27/9 27/28/27 28/29/28
f 22/22/22 29/30/29 23/23/23
f 29/30/29 30/31/30 23/23/23
f 10/10/10 31/32/31 32/33/32
f 21/21/21 23/23/23 33/34/33
f 34/35/34 33/34/33 23/23/23
f 35/36/35 19/19/19 18/18/18
f 36/37/36 37/38/37 38/39/38
f 39/40/39 10/10/10 40/41/40
f 41/42/41 9/9/9 11/11/11
f 42/43/42 43/44/43 44/45/44
f 45/46/45 37/47/37 40/48/40
f 46/49/46 47/50/47 48/51/48
f 49/52/49 46/49/46 20/20/20
f 13/13/13 50/53/50 6/6/6
f 42/43/42 51/54/51 49/52/49
f 6/6/6 22/22/22 12/12/12
f 6/6/6 5/5/5 22/22/22
f 44/45/44 52/55/52 51/54/51
f 53/56/53 1/1/1 17/17/17
f 54/57/54 36/37/36 38/39/38
f 55/58/55 56/59/56 57/60/57
f 56/59/56 55/58/55 25/25/25
f 58/61/58 51/54/51 13/13/13
f 51/54/51 58/61/58 46/49/46
f 59/62/59 60/63/60 61/64/61
f 62/65/62 26/26/26 25/25/25
f 55/58/55 43/44/43 62/65/62
f 6/6/6 50/53/50 7/7/7
f 60/63/60 42/43/42 49/52/49
f 60/63/60 59/62/59 24/24/24
f 30/31/30 15/15/15 14/66/14
f 17/17/17 15/15/15 39/40/39
f 5/5/5 31/32/31 29/30/29
f 49/52/49 61/64/61 60/63/60
f 31/32/31 5/5/5 4/4/4
f 63/67/63 32/33/32 4/4/4
f 63/67/63 64/68/64 11/11/11
f 64/68/64 63/67/63 65/69/65
f 66/70/66 45/46/45 67/71/67
f 37/47/37 45/46/45 66/70/66
f 66/72/66 68/73/68 69/74/69
f 70/75/70 27/76/27 69/74/69
f 71/77/71 72/78/72 73/79/73
f 73/79/73 74/80/74 71/77/71
f 73/79/73 75/81/75 74/80/74
f 76/82/76 70/83/70 69/84/69
f 77/85/77 78/86/78 79/87/79
f 77/85/77 80/88/80 81/89/81
f 75/81/75 76/82/76 77/90/77
f 76/82/76 69/84/69 80/91/80
f 76/82/76 75/81/75 70/83/70
f 76/82/76 80/91/80 77/90/77
f 74/92/74 77/85/77 79/87/79
f 67/93/67 78/94/78 68/73/68
f 82/95/82 67/96/67 68/73/68
f 82/95/82 68/73/68 66/72/66
f 37/97/37 83/98/83 38/99/38
f 1/1/1 53/56/53 2/2/2
f 84/100/84 85/101/85 34/35/34
f 85/101/85 84/100/84 86/102/86
f 87/103/87 86/102/86 84/100/84
f 88/104/88 87/103/87 84/100/84
f 14/105/14 89/106/89 88/107/88
f 90/108/90 88/104/88 84/100/84
f 90/109/90 14/105/14 88/107/88
f 91/110/91 92/111/92 89/112/89
f 34/35/34 30/31/30 90/108/90
f 85/101/85 92/113/92 33/34/33
f 93/114/93 58/61/58 94/115/94
f 94/115/94 58/61/58 95/116/95
f 93/114/93 47/50/47 58/61/58
f 96/117/96 26/26/26 62/65/62
f 2/118/2 97/119/97 98/120/98
f 99/121/99 100/122/100 101/123/101
f 102/124/102 35/125/35 18/126/18
f 43/127/43 57/128/57 103/129/103
f 104/130/104 101/123/101 105/131/105
f 106/132/106 107/133/107 108/134/108
f 109/135/109 110/136/110 97/119/97
f 8/137/8 111/138/111 100/122/100
f 112/139/112 102/124/102 113/140/113
f 114/141/114 102/124/102 18/126/18
f 115/142/115 116/143/116 117/144/117
f 118/145/118 119/146/119 98/120/98
f 41/147/41 64/148/64 106/132/106
f 91/149/91 119/150/119 120/151/120
f 121/152/121 122/153/122 117/144/117
f 121/152/121 123/154/123 124/155/124
f 125/156/125 126/157/126 44/158/44
f 108/159/108 127/160/127 54/161/54
f 128/162/128 129/163/129 130/164/130
f 131/165/131 105/131/105 101/123/101
f 47/166/47 129/163/129 114/141/114
f 132/167/132 44/158/44 126/157/126
f 102/124/102 128/162/128 133/168/133
f 115/142/115 99/121/99 104/130/104
f 126/157/126 131/165/131 132/167/132
f 126/157/126 130/164/130 131/165/131
f 2/118/2 36/169/36 97/119/97
f 64/148/64 65/170/65 106/132/106
f 132/167/132 134/171/134 50/172/50
f 105/131/105 131/165/131 130/164/130
f 25/173/25 135/174/135 56/175/56
f 103/129/103 56/175/56 135/174/135
f 19/176/19 35/125/35 136/177/136
f 19/176/19 136/177/136 24/178/24
f 136/177/136 112/139/112 113/140/113
f 135/174/135 24/178/24 136/177/136
f 137/179/137 103/129/103 138/180/138
f 137/179/137 125/156/125 103/129/103
f 121/152/121 139/181/139 140/182/140
f 122/153/122 121/152/121 140/182/140
f 141/183/141 122/153/122 140/182/140
f 140/182/140 110/136/110 141/183/141
f 142/184/142 99/121/99 143/185/143
f 116/143/116 115/142/115 144/186/144
f 143/185/143 99/121/99 115/142/115
f 137/179/137 126/157/126 125/156/125
f 138/180/138 136/177/136 113/140/113
f 100/122/100 145/187/145 8/137/8
f 65/170/65 8/137/8 145/187/145
f 146/188/146 147/189/147 148/190/148
f 127/191/127 149/192/149 147/193/147
f 148/190/148 147/189/147 150/194/150
f 151/195/151 148/190/148 152/196/152
f 147/189/147 153/197/153 150/194/150
f 153/198/153 149/199/149 154/200/154
f 155/201/155 156/202/156 157/203/157
f 155/204/155 157/205/157 158/206/158
f 154/200/154 157/205/157 156/207/156
f 159/208/159 154/200/154 156/207/156
f 154/200/154 149/199/149 158/206/158
f 149/199/149 160/209/160 158/206/158
f 161/210/161 156/202/156 162/211/162
f 151/212/151 160/213/160 149/192/149
f 160/213/160 152/214/152 163/215/163
f 164/216/164 163/217/163 152/218/152
f 165/219/165 152/220/152 150/221/150
f 150/221/150 153/198/153 166/222/166
f 167/223/167 168/224/168 162/211/162
f 168/225/168 167/226/167 165/219/165
f 168/225/168 166/222/166 161/227/161
f 168/225/168 165/219/165 166/222/166
f 159/208/159 166/222/166 153/198/153
f 162/211/162 164/216/164 167/223/167
f 166/222/166 159/208/159 161/227/161
f 152/196/152 169/228/169 151/195/151
f 160/229/160 169/228/169 152/196/152
f 160/213/160 151/212/151 169/230/169
f 162/211/162 163/217/163 164/216/164
f 127/160/127 146/188/146 54/161/54
f 54/231/54 106/132/106 108/134/108
f 36/169/36 146/232/146 109/135/109
f 124/155/124 170/233/170 171/234/171
f 172/235/172 171/234/171 173/236/173
f 174/237/174 139/238/139 175/239/175
f 174/237/174 170/240/170 92/241/92
f 174/237/174 175/239/175 170/240/170
f 139/238/139 172/242/172 175/239/175
f 92/243/92 120/151/120 174/244/174
f 121/152/121 124/155/124 171/234/171
f 92/245/92 124/155/124 123/154/123
f 144/186/144 21/246/21 116/143/116
f 21/246/21 144/186/144 94/247/94
f 93/248/93 105/131/105 129/163/129
f 126/157/126 133/168/133 130/164/130
f 176/249/176 177/250/177 178/251/178
f 177/250/177 179/252/179 178/251/178
f 178/253/178 180/254/180 176/255/176
f 178/253/178 179/256/179 180/254/180
f 181/257/181 182/258/182 183/259/183
f 184/260/184 182/258/182 181/257/181
f 181/261/181 183/262/183 184/263/184
f 34/35/34 85/101/85 33/34/33
f 16/16/16 15/15/15 1/1/1
f 4/4/4 6/6/6 7/7/7
f 61/64/61 20/20/20 19/19/19
f 40/41/40 10/10/10 9/9/9
f 1/1/1 3/3/3 16/16/16
f 20/20/20 61/64/61 49/52/49
f 20/20/20 46/49/46 48/51/48
f 114/264/114 18/18/18 48/51/48
f 25/25/25 55/58/55 62/65/62
f 91/265/91 16/16/16 119/266/119
f 23/23/23 30/31/30 34/35/34
f 39/40/39 40/41/40 17/17/17
f 36/37/36 53/56/53 37/38/37
f 41/42/41 38/267/38 9/9/9
f 11/11/11 64/68/64 41/42/41
f 51/54/51 42/43/42 44/45/44
f 9/268/9 38/99/38 83/98/83
f 40/48/40 9/27/9 45/46/45
f 132/269/132 52/55/52 44/45/44
f 12/12/12 58/61/58 13/13/13
f 111/270/111 8/8/8 7/7/7
f 48/51/48 47/50/47 114/264/114
f 94/115/94 95/116/95 12/12/12
f 65/69/65 63/67/63 4/4/4
f 49/52/49 51/54/51 46/49/46
f 11/11/11 10/10/10 32/33/32
f 32/33/32 63/67/63 11/11/11
f 3/3/3 119/266/119 16/16/16
f 53/56/53 36/37/36 2/2/2
f 17/17/17 40/41/40 53/56/53
f 40/41/40 37/38/37 53/56/53
f 13/13/13 52/55/52 50/53/50
f 50/53/50 52/55/52 132/269/132
f 46/49/46 58/61/58 47/50/47
f 24/24/24 135/271/135 25/25/25
f 19/19/19 24/24/24 59/62/59
f 19/19/19 59/62/59 61/64/61
f 50/53/50 111/270/111 7/7/7
f 96/117/96 60/63/60 26/26/26
f 43/44/43 42/43/42 62/65/62
f 60/63/60 96/117/96 42/43/42
f 26/26/26 60/63/60 24/24/24
f 96/117/96 62/65/62 42/43/42
f 29/30/29 31/32/31 185/272/185
f 15/15/15 30/31/30 29/30/29
f 185/272/185 10/10/10 39/40/39
f 39/40/39 15/15/15 29/30/29
f 39/40/39 29/30/29 185/272/185
f 48/51/48 18/18/18 20/20/20
f 21/21/21 94/115/94 22/22/22
f 12/12/12 22/22/22 94/115/94
f 22/22/22 5/5/5 29/30/29
f 10/10/10 185/272/185 31/32/31
f 32/33/32 31/32/31 4/4/4
f 41/42/41 54/273/54 38/267/38
f 120/274/120 92/111/92 91/110/91
f 27/76/27 83/98/83 37/97/37
f 37/97/37 66/72/66 27/76/27
f 186/275/186 73/79/73 72/78/72
f 28/29/28 45/46/45 9/27/9
f 28/29/28 67/71/67 45/46/45
f 27/28/27 70/276/70 28/29/28
f 27/76/27 66/72/66 69/74/69
f 28/277/28 70/83/70 73/79/73
f 187/278/187 72/279/72 71/280/71
f 187/281/187 186/275/186 72/78/72
f 188/282/188 186/275/186 187/281/187
f 73/79/73 70/83/70 75/81/75
f 69/84/69 81/283/81 80/91/80
f 67/284/67 28/277/28 186/275/186
f 188/285/188 187/278/187 79/87/79
f 79/87/79 187/278/187 71/280/71
f 74/92/74 79/87/79 71/280/71
f 77/90/77 74/80/74 75/81/75
f 78/86/78 77/85/77 81/89/81
f 78/286/78 81/283/81 68/287/68
f 91/265/91 14/14/14 16/16/16
f 67/93/67 188/288/188 78/94/78
f 82/289/82 66/70/66 67/71/67
f 78/86/78 188/285/188 79/87/79
f 90/108/90 84/100/84 34/35/34
f 86/290/86 87/291/87 88/107/88
f 92/292/92 86/290/86 89/106/89
f 88/107/88 89/106/89 86/290/86
f 85/101/85 86/102/86 92/113/92
f 90/108/90 30/31/30 14/66/14
f 109/135/109 108/134/108 107/133/107
f 93/114/93 94/115/94 144/293/144
f 95/116/95 58/61/58 12/12/12
f 51/54/51 52/55/52 13/13/13
f 120/151/120 118/294/118 174/244/174
f 139/295/139 118/145/118 140/182/140
f 97/119/97 140/182/140 118/145/118
f 98/120/98 3/296/3 2/118/2
f 98/120/98 97/119/97 118/145/118
f 35/125/35 102/124/102 112/139/112
f 43/127/43 55/297/55 57/128/57
f 103/129/103 57/128/57 56/175/56
f 125/156/125 43/127/43 103/129/103
f 129/163/129 128/162/128 102/124/102
f 111/138/111 101/123/101 100/122/100
f 44/158/44 43/127/43 125/156/125
f 145/187/145 142/184/142 106/132/106
f 142/184/142 145/187/145 99/121/99
f 107/133/107 106/132/106 142/184/142
f 114/141/114 129/163/129 102/124/102
f 98/120/98 119/146/119 3/296/3
f 119/146/119 118/145/118 120/298/120
f 122/153/122 143/185/143 115/142/115
f 115/142/115 117/144/117 122/153/122
f 142/184/142 141/183/141 107/133/107
f 100/122/100 99/121/99 145/187/145
f 116/143/116 123/154/123 117/144/117
f 117/144/117 123/154/123 121/152/121
f 106/132/106 54/231/54 41/147/41
f 189/299/189 108/300/108 146/301/146
f 105/131/105 144/186/144 104/130/104
f 133/168/133 128/162/128 130/164/130
f 101/123/101 111/138/111 134/171/134
f 101/123/101 104/130/104 99/121/99
f 65/170/65 4/302/4 8/137/8
f 134/171/134 111/138/111 50/172/50
f 140/182/140 97/119/97 110/136/110
f 106/132/106 65/170/65 145/187/145
f 141/183/141 110/136/110 107/133/107
f 109/135/109 107/133/107 110/136/110
f 132/167/132 131/165/131 134/171/134
f 129/163/129 47/166/47 93/248/93
f 105/131/105 130/164/130 129/163/129
f 113/140/113 133/168/133 138/180/138
f 113/140/113 102/124/102 133/168/133
f 35/125/35 112/139/112 136/177/136
f 103/129/103 135/174/135 138/180/138
f 141/183/141 142/184/142 143/185/143
f 143/185/143 122/153/122 141/183/141
f 144/186/144 115/142/115 104/130/104
f 133/168/133 126/157/126 137/179/137
f 189/299/189 148/303/148 151/212/151
f 148/190/148 189/304/189 146/188/146
f 146/188/146 127/160/127 147/189/147
f 127/191/127 108/300/108 149/192/149
f 149/192/149 108/300/108 189/299/189
f 189/299/189 151/212/151 149/192/149
f 152/196/152 148/190/148 150/194/150
f 147/193/147 149/192/149 153/305/153
f 161/210/161 159/306/159 156/202/156
f 163/217/163 162/211/162 156/202/156
f 156/202/156 155/201/155 163/217/163
f 157/205/157 154/200/154 158/206/158
f 153/198/153 154/200/154 159/208/159
f 155/204/155 158/206/158 160/209/160
f 155/204/155 160/209/160 163/307/163
f 166/222/166 165/219/165 150/221/150
f 168/224/168 161/210/161 162/211/162
f 167/308/167 152/220/152 165/219/165
f 164/309/164 152/220/152 167/308/167
f 36/169/36 109/135/109 97/119/97
f 36/169/36 54/310/54 146/232/146
f 172/235/172 139/181/139 121/152/121
f 173/236/173 171/234/171 170/233/170
f 175/311/175 172/235/172 173/236/173
f 172/235/172 121/152/121 171/234/171
f 170/240/170 175/239/175 173/312/173
f 170/240/170 124/313/124 92/241/92
f 139/295/139 174/314/174 118/145/118
f 33/315/33 92/245/92 123/154/123
f 21/246/21 33/315/33 123/154/123
f 116/143/116 21/246/21 123/154/123
f 134/171/134 131/165/131 101/123/101
f 138/180/138 133/168/133 137/179/137
f 135/174/135 136/177/136 138/180/138
f 176/249/176 179/252/179 177/250/177
f 179/256/179 176/255/176 180/254/180
f 182/316/182 184/263/184 183/262/183
f 9/27/9 83/317/83 27/28/27
f 186/275/186 28/277/28 73/79/73
f 188/282/188 67/284/67 186/275/186
f 69/84/69 68/287/68 81/283/81
f 91/265/91 89/318/89 14/14/14
f 109/135/109 146/232/146 108/134/108
f 105/131/105 93/248/93 144/186/144
